Untitled
…
reports_03_11_2020 %>% 
  group_by(Country.Region) %>% 
  summarise(Deaths = sum(Deaths)) %>% 
  arrange(desc(Deaths))

## `summarise()` ungrouping output (override with `.groups` argument)

## # A tibble: 116 x 2
##    Country.Region Deaths
##    <chr>           <dbl>
##  1 China            3161
##  2 Italy             827
##  3 Iran              354
##  4 Korea, South       60
##  5 Spain              54
##  6 France             48
##  7 US                 36
##  8 Japan              15
##  9 United Kingdom      8
## 10 Cruise Ship         7
## #  with 106 more rows

reports_03_11_2020 %>%
  group_by(Country.Region) %>% 
  summarise(Confirmed = sum(Confirmed)) %>% 
  arrange(desc(Confirmed))

## `summarise()` ungrouping output (override with `.groups` argument)

## # A tibble: 116 x 2
##    Country.Region Confirmed
##    <chr>              <dbl>
##  1 China              80921
##  2 Italy              12462
##  3 Iran                9000
##  4 Korea, South        7755
##  5 France              2284
##  6 Spain               2277
##  7 Germany             1908
##  8 US                  1281
##  9 Cruise Ship          696
## 10 Switzerland          652
## #  with 106 more rows
…
reports_09_11_2020 %>% 
  filter (Country.Region == "US") %>%
  group_by(Province.State) %>% 
  summarise(Confirmed = sum(Confirmed)) %>% 
  arrange(desc(Confirmed))

## `summarise()` ungrouping output (override with `.groups` argument)

## # A tibble: 58 x 2
##    Province.State Confirmed
##    <chr>              <dbl>
##  1 California        754905
##  2 Texas             675034
##  3 Florida           658381
##  4 New York          442791
##  5 Georgia           290781
##  6 Illinois          259879
##  7 Arizona           207523
##  8 New Jersey        195888
##  9 North Carolina    182286
## 10 Tennessee         169859
## #  with 48 more rows
…
reports_09_11_2020 %>% 
  filter (Country.Region == "US") %>%
  group_by(Province.State) %>% 
  summarise(Deaths = sum(Deaths)) %>% 
  arrange(desc(Deaths))

## `summarise()` ungrouping output (override with `.groups` argument)

## # A tibble: 58 x 2
##    Province.State Deaths
##    <chr>           <dbl>
##  1 New York        33019
##  2 New Jersey      16023
##  3 California      14230
##  4 Texas           14227
##  5 Florida         12502
##  6 Massachusetts    9180
##  7 Illinois         8505
##  8 Pennsylvania     7829
##  9 Michigan         6900
## 10 Georgia          6246
## #  with 48 more rows
…
reports_09_11_2020 %>%
  group_by(Country.Region) %>% 
  summarise(Confirmed = sum(Confirmed)) %>% 
  arrange(desc(Confirmed))

## `summarise()` ungrouping output (override with `.groups` argument)

## # A tibble: 188 x 2
##    Country.Region Confirmed
##    <chr>              <dbl>
##  1 US               6443743
##  2 India            4659984
##  3 Brazil           4282164
##  4 Russia           1048257
##  5 Peru              710067
##  6 Colombia          702088
##  7 Mexico            658299
##  8 South Africa      646398
##  9 Spain             566326
## 10 Argentina         535705
## #  with 178 more rows

reports_09_11_2020 %>% 
  group_by(Country.Region) %>% 
  summarise(Deaths = sum(Deaths)) %>% 
  arrange(desc(Deaths))

## `summarise()` ungrouping output (override with `.groups` argument)

## # A tibble: 188 x 2
##    Country.Region Deaths
##    <chr>           <dbl>
##  1 US             192979
##  2 Brazil         130396
##  3 India           77472
##  4 Mexico          70183
##  5 United Kingdom  41703
##  6 Italy           35597
##  7 France          30901
##  8 Peru            30344
##  9 Spain           29747
## 10 Iran            22913
## #  with 178 more rows
…
